C:\Users\zndznd\Documents\AndroidStudio\cupix-sdk\android\src\main\java\io\swagger\client\model\TagList.java
C:\Users\zndznd\Documents\AndroidStudio\cupix-sdk\android\src\main\java\io\swagger\client\model\LineItem.java
C:\Users\zndznd\Documents\AndroidStudio\cupix-sdk\android\src\main\java\io\swagger\client\model\TileEndpointList.java
C:\Users\zndznd\Documents\AndroidStudio\cupix-sdk\android\src\main\java\io\swagger\client\model\Message.java
C:\Users\zndznd\Documents\AndroidStudio\cupix-sdk\android\src\main\java\io\swagger\client\model\Trash.java
C:\Users\zndznd\Documents\AndroidStudio\cupix-sdk\android\src\main\java\io\swagger\client\api\ComparisonApi.java
C:\Users\zndznd\Documents\AndroidStudio\cupix-sdk\android\src\main\java\io\swagger\client\model\PlanResponse.java
C:\Users\zndznd\Documents\AndroidStudio\cupix-sdk\android\src\main\java\io\swagger\client\model\PurchaseOrderList.java
C:\Users\zndznd\Documents\AndroidStudio\cupix-sdk\android\src\main\java\io\swagger\client\api\TeamApi.java
C:\Users\zndznd\Documents\AndroidStudio\cupix-sdk\android\src\main\java\io\swagger\client\model\Invoice.java
C:\Users\zndznd\Documents\AndroidStudio\cupix-sdk\android\src\main\java\io\swagger\client\model\StripeLineItem.java
C:\Users\zndznd\Documents\AndroidStudio\cupix-sdk\android\src\main\java\io\swagger\client\model\Member.java
C:\Users\zndznd\Documents\AndroidStudio\cupix-sdk\android\src\main\java\io\swagger\client\model\PaymentMethod.java
C:\Users\zndznd\Documents\AndroidStudio\cupix-sdk\android\src\main\java\io\swagger\client\model\Location.java
C:\Users\zndznd\Documents\AndroidStudio\cupix-sdk\android\src\main\java\io\swagger\client\api\ProductApi.java
C:\Users\zndznd\Documents\AndroidStudio\cupix-sdk\android\src\main\java\io\swagger\client\model\Session.java
C:\Users\zndznd\Documents\AndroidStudio\cupix-sdk\android\src\main\java\io\swagger\client\Pair.java
C:\Users\zndznd\Documents\AndroidStudio\cupix-sdk\android\src\main\java\io\swagger\client\model\TagListContents.java
C:\Users\zndznd\Documents\AndroidStudio\cupix-sdk\android\src\main\java\io\swagger\client\model\InvoiceList.java
C:\Users\zndznd\Documents\AndroidStudio\cupix-sdk\android\src\main\java\io\swagger\client\request\GetRequest.java
C:\Users\zndznd\Documents\AndroidStudio\cupix-sdk\android\src\main\java\io\swagger\client\model\StationEntity.java
C:\Users\zndznd\Documents\AndroidStudio\cupix-sdk\android\src\main\java\io\swagger\client\api\AssetApi.java
C:\Users\zndznd\Documents\AndroidStudio\cupix-sdk\android\src\main\java\io\swagger\client\model\ErrorCode.java
C:\Users\zndznd\Documents\AndroidStudio\cupix-sdk\android\src\main\java\io\swagger\client\api\UserApi.java
C:\Users\zndznd\Documents\AndroidStudio\cupix-sdk\android\src\main\java\io\swagger\client\model\HouseEntity.java
C:\Users\zndznd\Documents\AndroidStudio\cupix-sdk\android\src\main\java\io\swagger\client\model\Product.java
C:\Users\zndznd\Documents\AndroidStudio\cupix-sdk\android\src\main\java\io\swagger\client\api\AuthenticateApi.java
C:\Users\zndznd\Documents\AndroidStudio\cupix-sdk\android\src\main\java\io\swagger\client\model\FileList.java
C:\Users\zndznd\Documents\AndroidStudio\cupix-sdk\android\src\main\java\io\swagger\client\model\JobList.java
C:\Users\zndznd\Documents\AndroidStudio\cupix-sdk\android\src\main\java\io\swagger\client\model\Log.java
C:\Users\zndznd\Documents\AndroidStudio\cupix-sdk\android\src\main\java\io\swagger\client\JsonUtil.java
C:\Users\zndznd\Documents\AndroidStudio\cupix-sdk\android\src\main\java\io\swagger\client\model\HouseEntityLocation.java
C:\Users\zndznd\Documents\AndroidStudio\cupix-sdk\android\src\main\java\io\swagger\client\model\MemberList.java
C:\Users\zndznd\Documents\AndroidStudio\cupix-sdk\android\src\main\java\io\swagger\client\model\ProductList.java
C:\Users\zndznd\Documents\AndroidStudio\cupix-sdk\android\src\main\java\io\swagger\client\api\CommentApi.java
C:\Users\zndznd\Documents\AndroidStudio\cupix-sdk\android\src\main\java\io\swagger\client\api\FileApi.java
C:\Users\zndznd\Documents\AndroidStudio\cupix-sdk\android\src\main\java\io\swagger\client\model\LodEndpointList.java
C:\Users\zndznd\Documents\AndroidStudio\cupix-sdk\android\src\main\java\io\swagger\client\api\TrashApi.java
C:\Users\zndznd\Documents\AndroidStudio\cupix-sdk\android\src\main\java\io\swagger\client\auth\HttpBasicAuth.java
C:\Users\zndznd\Documents\AndroidStudio\cupix-sdk\android\src\main\java\io\swagger\client\model\Export.java
C:\Users\zndznd\Documents\AndroidStudio\cupix-sdk\android\src\main\java\io\swagger\client\api\SessionApi.java
C:\Users\zndznd\Documents\AndroidStudio\cupix-sdk\android\src\main\java\io\swagger\client\model\Comparison.java
C:\Users\zndznd\Documents\AndroidStudio\cupix-sdk\android\src\main\java\io\swagger\client\model\AccountManager.java
C:\Users\zndznd\Documents\AndroidStudio\cupix-sdk\android\src\main\java\io\swagger\client\api\SearchApi.java
C:\Users\zndznd\Documents\AndroidStudio\cupix-sdk\android\src\main\java\io\swagger\client\model\Plan.java
C:\Users\zndznd\Documents\AndroidStudio\cupix-sdk\android\src\main\java\io\swagger\client\model\OnboardList.java
C:\Users\zndznd\Documents\AndroidStudio\cupix-sdk\android\src\main\java\io\swagger\client\model\Pagination.java
C:\Users\zndznd\Documents\AndroidStudio\cupix-sdk\android\src\main\java\io\swagger\client\model\SectionList.java
C:\Users\zndznd\Documents\AndroidStudio\cupix-sdk\android\src\main\java\io\swagger\client\api\StationApi.java
C:\Users\zndznd\Documents\AndroidStudio\cupix-sdk\android\src\main\java\io\swagger\client\api\ExportApi.java
C:\Users\zndznd\Documents\AndroidStudio\cupix-sdk\android\src\main\java\io\swagger\client\model\HouseEntityShare.java
C:\Users\zndznd\Documents\AndroidStudio\cupix-sdk\android\src\main\java\io\swagger\client\model\FileEntity.java
C:\Users\zndznd\Documents\AndroidStudio\cupix-sdk\android\src\main\java\io\swagger\client\model\Comment.java
C:\Users\zndznd\Documents\AndroidStudio\cupix-sdk\android\src\main\java\io\swagger\client\request\DeleteRequest.java
C:\Users\zndznd\Documents\AndroidStudio\cupix-sdk\android\src\main\java\io\swagger\client\model\TrashList.java
C:\Users\zndznd\Documents\AndroidStudio\cupix-sdk\android\src\main\java\io\swagger\client\model\StationList.java
C:\Users\zndznd\Documents\AndroidStudio\cupix-sdk\android\src\main\java\io\swagger\client\model\UserAutocompleteResponse.java
C:\Users\zndznd\Documents\AndroidStudio\cupix-sdk\android\src\main\java\io\swagger\client\model\UserList.java
C:\Users\zndznd\Documents\AndroidStudio\cupix-sdk\android\src\main\java\io\swagger\client\api\BillingApi.java
C:\Users\zndznd\Documents\AndroidStudio\cupix-sdk\android\src\main\java\io\swagger\client\model\Job.java
C:\Users\zndznd\Documents\AndroidStudio\cupix-sdk\android\src\main\java\io\swagger\client\model\Project.java
C:\Users\zndznd\Documents\AndroidStudio\cupix-sdk\android\src\main\java\io\swagger\client\model\HouseList.java
C:\Users\zndznd\Documents\AndroidStudio\cupix-sdk\android\src\main\java\io\swagger\client\model\PurchaseOrder.java
C:\Users\zndznd\Documents\AndroidStudio\cupix-sdk\android\src\main\java\io\swagger\client\model\TeamProductList.java
C:\Users\zndznd\Documents\AndroidStudio\cupix-sdk\android\src\main\java\io\swagger\client\model\BaseUser.java
C:\Users\zndznd\Documents\AndroidStudio\cupix-sdk\android\src\main\java\io\swagger\client\api\JobApi.java
C:\Users\zndznd\Documents\AndroidStudio\cupix-sdk\android\src\main\java\io\swagger\client\model\Redirect.java
C:\Users\zndznd\Documents\AndroidStudio\cupix-sdk\android\src\main\java\io\swagger\client\model\SectionEntity.java
C:\Users\zndznd\Documents\AndroidStudio\cupix-sdk\android\src\main\java\io\swagger\client\model\TeamStateInfo.java
C:\Users\zndznd\Documents\AndroidStudio\cupix-sdk\android\src\main\java\io\swagger\client\api\SectionApi.java
C:\Users\zndznd\Documents\AndroidStudio\cupix-sdk\android\src\main\java\io\swagger\client\model\Acl.java
C:\Users\zndznd\Documents\AndroidStudio\cupix-sdk\android\src\main\java\io\swagger\client\model\ExportList.java
C:\Users\zndznd\Documents\AndroidStudio\cupix-sdk\android\src\main\java\io\swagger\client\model\ProjectList.java
C:\Users\zndznd\Documents\AndroidStudio\cupix-sdk\android\src\main\java\io\swagger\client\model\Asset.java
C:\Users\zndznd\Documents\AndroidStudio\cupix-sdk\android\src\main\java\io\swagger\client\model\MessageList.java
C:\Users\zndznd\Documents\AndroidStudio\cupix-sdk\android\src\main\java\io\swagger\client\api\OnboardApi.java
C:\Users\zndznd\Documents\AndroidStudio\cupix-sdk\android\src\main\java\io\swagger\client\model\AssetList.java
C:\Users\zndznd\Documents\AndroidStudio\cupix-sdk\android\src\main\java\io\swagger\client\model\BaseTeam.java
C:\Users\zndznd\Documents\AndroidStudio\cupix-sdk\android\src\main\java\io\swagger\client\auth\ApiKeyAuth.java
C:\Users\zndznd\Documents\AndroidStudio\cupix-sdk\android\src\main\java\io\swagger\client\api\HouseApi.java
C:\Users\zndznd\Documents\AndroidStudio\cupix-sdk\android\src\main\java\io\swagger\client\model\CommentList.java
C:\Users\zndznd\Documents\AndroidStudio\cupix-sdk\android\src\main\java\io\swagger\client\model\Organization.java
C:\Users\zndznd\Documents\AndroidStudio\cupix-sdk\android\src\main\java\io\swagger\client\ApiInvoker.java
C:\Users\zndznd\Documents\AndroidStudio\cupix-sdk\android\src\main\java\io\swagger\client\ApiException.java
C:\Users\zndznd\Documents\AndroidStudio\cupix-sdk\android\src\main\java\io\swagger\client\api\CurrentUserApi.java
C:\Users\zndznd\Documents\AndroidStudio\cupix-sdk\android\src\main\java\io\swagger\client\api\MessageApi.java
C:\Users\zndznd\Documents\AndroidStudio\cupix-sdk\android\src\main\java\io\swagger\client\model\LineItemList.java
C:\Users\zndznd\Documents\AndroidStudio\cupix-sdk\android\src\main\java\io\swagger\client\auth\Authentication.java
C:\Users\zndznd\Documents\AndroidStudio\cupix-sdk\android\src\main\java\io\swagger\client\model\SearchResults.java
C:\Users\zndznd\Documents\AndroidStudio\cupix-sdk\android\src\main\java\io\swagger\client\model\SceneData.java
C:\Users\zndznd\Documents\AndroidStudio\cupix-sdk\android\src\main\java\io\swagger\client\model\TeamProduct.java
C:\Users\zndznd\Documents\AndroidStudio\cupix-sdk\android\src\main\java\io\swagger\client\api\ProjectApi.java
C:\Users\zndznd\Documents\AndroidStudio\cupix-sdk\android\src\main\java\io\swagger\client\model\LogList.java
C:\Users\zndznd\Documents\AndroidStudio\cupix-sdk\android\src\main\java\io\swagger\client\model\ComparisonList.java
C:\Users\zndznd\Documents\AndroidStudio\cupix-sdk\android\src\main\java\io\swagger\client\request\PostRequest.java
C:\Users\zndznd\Documents\AndroidStudio\cupix-sdk\android\src\main\java\io\swagger\client\model\User.java
C:\Users\zndznd\Documents\AndroidStudio\cupix-sdk\android\src\main\java\io\swagger\client\model\SearchResultItem.java
C:\Users\zndznd\Documents\AndroidStudio\cupix-sdk\android\src\main\java\io\swagger\client\request\PatchRequest.java
C:\Users\zndznd\Documents\AndroidStudio\cupix-sdk\android\src\main\java\io\swagger\client\model\Team.java
C:\Users\zndznd\Documents\AndroidStudio\cupix-sdk\android\src\main\java\io\swagger\client\request\PutRequest.java
